; Engine configuration file.
; It's best edited using the editor UI and not directly,
; since the parameters that go here are not all obvious.
;
; Format:
;   [section] ; section goes between []
;   param=value ; assign values to parameters

config_version=4

_global_script_classes=[  ]
_global_script_class_icons={

}

[application]

config/name="Star Frontier"
run/main_scene="res://source/scene/Main.tscn"
boot_splash/image="res://source/assets/image/bg/bg_menu.png"
config/icon="res://icon.png"

[display]

window/size/width=720
window/size/height=1280
window/dpi/allow_hidpi=true
window/handheld/orientation="sensor_portrait"
window/stretch/mode="2d"
window/stretch/aspect="expand"

[rendering]

vram_compression/import_etc=true
vram_compression/import_etc2=false
environment/default_environment="res://default_env.tres"
