[gd_scene load_steps=5 format=2]

[ext_resource path="res://source/assets/font/Nunito-Black.ttf" type="DynamicFontData" id=1]
[ext_resource path="res://source/assets/image/bg/ic_score.png" type="Texture" id=2]
[ext_resource path="res://source/script/Counter.gd" type="Script" id=3]


[sub_resource type="DynamicFont" id=1]
size = 100
outline_size = 2
outline_color = Color( 1, 1, 1, 0.784314 )
use_filter = true
font_data = ExtResource( 1 )

[node name="Counter" type="Label"]
anchor_left = 0.5
anchor_top = 0.432679
anchor_right = 0.5
anchor_bottom = 0.432679
margin_left = -639.0
margin_top = -56.5
margin_right = 639.0
margin_bottom = 55.5
custom_fonts/font = SubResource( 1 )
text = "$ -25"
align = 1
valign = 1
script = ExtResource( 3 )
__meta__ = {
"_edit_use_anchors_": true
}

[node name="Tween" type="Tween" parent="."]

[node name="CPUParticles2D" type="CPUParticles2D" parent="."]
show_behind_parent = true
position = Vector2( 633.145, 32.8622 )
emitting = false
lifetime = 12.0
speed_scale = 10.0
local_coords = false
texture = ExtResource( 2 )
emission_shape = 2
emission_rect_extents = Vector2( 100, 50 )
direction = Vector2( 0, 0 )
spread = 60.0
gravity = Vector2( 0, 7 )
initial_velocity = 10.0
